PETS_analysis_Part2.R
…
## [1] "uuid"       "type"       "format"     "contents"   "version"   
## [6] "data"       "provenance"

taxtable<-taxonomy$data %>% as.tibble() %>% separate(Taxon, sep="; ", c("Kingdom","Phylum","Class","Order","Family","Genus","Species")) #convert the table into a tabular split version

## Warning: `as.tibble()` is deprecated, use `as_tibble()` (but mind the new semantics).
## This warning is displayed once per session.

## Warning: Expected 7 pieces. Missing pieces filled with `NA` in 1348 rows [2,
## 12, 16, 19, 26, 29, 36, 37, 42, 45, 53, 63, 98, 99, 103, 119, 126, 128, 133,
## 138, ...].

taxtable

## # A tibble: 8,690 x 9
##    Feature.ID   Kingdom  Phylum  Class  Order  Family  Genus  Species Confidence
##    <fct>        <chr>    <chr>   <chr>  <chr>  <chr>   <chr>  <chr>        <dbl>
##  1 2c4c2293ad4 k__Bact p__Pro c__Ga o__Ps f__Mor g__    s__          0.876
##  2 1355705d5f5 k__Bact p__Fir c__Ba o__Ba f__Sta g__St <NA>         0.983
##  3 c7d03da1258 k__Bact p__Pro c__Ga o__Pa f__Pas g__    s__          0.884
##  4 15f0598d4e0 k__Bact p__Act c__Ac o__Ac f__Cor g__Co s__          0.996
##  5 0110fc6ca03 k__Bact p__Pro c__Ga o__Ps f__Mor g__Mo s__          0.998
##  6 7d1ce6efa9e k__Bact p__Pro c__Ga o__Ps f__Mor g__En s__          0.997
##  7 7958b69717c k__Bact p__Fir c__Ba o__La f__Aer g__Al s__          1.000
##  8 28e73b6b7af k__Bact p__Pro c__Be o__Ne f__Nei g__Ki s__          0.710
##  9 fabfcad6e97 k__Bact p__Pro c__Ga o__Ps f__Mor g__Mo s__          1.000
## 10 d111d43b3f1 k__Bact p__Pro c__Be o__Ne f__Nei g__Co s__          0.997
## #  with 8,680 more rows
…
## # A tibble: 4 x 5
##   BodySite shannon_mean shannon_med FPD_mean FPD_med
##   <chr>           <dbl>       <dbl>    <dbl>   <dbl>
## 1 Inguinal         3.20        3.22     11.4    9.73
## 2 Lesion           4.68        4.72     16.4   15.5 
## 3 Mouth            5.20        5.10     16.0   15.6 
## 4 Nose             3.57        3.42     19.2   19.0

summarize(by_house, petnum_mean=mean(petnumber, na.rm = TRUE), 
          petnum_med=median(petnumber, na.rm = TRUE))

## # A tibble: 25 x 3
##    houseid petnum_mean petnum_med
##      <dbl>       <dbl>      <dbl>
##  1     166           5          5
##  2     168           2          2
##  3     170           2          2
##  4     171           3          3
##  5     172           5          5
##  6     174           1          1
##  7     176           2          2
##  8     177           0          0
##  9     179           3          3
## 10     180           2          2
## #  with 15 more rows
…
